{"records": [{
    "jsonSchemaLocation": "/RESTPOSTBike/Service Descriptors/restpostbike.POSTBike-POSTBike.json",
    "conversionType": "linked",
    "xsdSchemaTargetNamespace": "http://www.example.org/SchemaBikesSales"
}]}